…
We're now moving onto plotting Fst values, so you should again start a new Rscript and clear your environment.


We have a the Fst values for each site in the genome. Lets load that into R.
```r
library(tidyverse)

fst <- read_tsv("analysis/full_genome.filtered.weir.fst")
fst
# A tibble: 6,750 x 3
   CHROM         POS WEIR_AND_COCKERHAM_FST
   <chr>       <dbl>                  <dbl>
 1 HanXRQChr01  1134                 1     
 2 HanXRQChr01  1137                 0.214 
 3 HanXRQChr01  1146               NaN     
 4 HanXRQChr01  1160                 0.0543
 5 HanXRQChr01  1166                 1     
 6 HanXRQChr01  1335                 0.352 
 7 HanXRQChr01  1404                 1     
 8 HanXRQChr01  1429                 0.352 
 9 HanXRQChr01  1450                 1     
10 HanXRQChr01  1458                 1     
# … with 6,740 more rows
```
That worked, but its kind of annoying to have to type in such long ALL CAPS names, so we should rename them using the _rename()_ command.
```r
fst <- fst %>%
  rename(chr=CHROM,pos=POS, fst=WEIR_AND_COCKERHAM_FST) 
fst
# A tibble: 6,750 x 3
   chr           pos      fst
   <chr>       <dbl>    <dbl>
 1 HanXRQChr01  1134   1     
 2 HanXRQChr01  1137   0.214 
 3 HanXRQChr01  1146 NaN     
 4 HanXRQChr01  1160   0.0543
 5 HanXRQChr01  1166   1     
 6 HanXRQChr01  1335   0.352 
 7 HanXRQChr01  1404   1     
 8 HanXRQChr01  1429   0.352 
 9 HanXRQChr01  1450   1     
10 HanXRQChr01  1458   1     
# … with 6,740 more rows
```
…
